<?xml version="1.0" encoding="UTF-8" standalone="no"?>
<svg
   xmlns:dc="http://purl.org/dc/elements/1.1/"
   xmlns:cc="http://creativecommons.org/ns#"
   xmlns:rdf="http://www.w3.org/1999/02/22-rdf-syntax-ns#"
   xmlns:svg="http://www.w3.org/2000/svg"
   xmlns="http://www.w3.org/2000/svg"
   xmlns:sodipodi="http://sodipodi.sourceforge.net/DTD/sodipodi-0.dtd"
   xmlns:inkscape="http://www.inkscape.org/namespaces/inkscape"
   version="1.1"
   x="0px"
   y="0px"
   viewBox="0 0 32 40"
   enable-background="new 0 0 32 32"
   xml:space="preserve"
   id="svg106"
   sodipodi:docname="rssgen.svg"
   inkscape:version="0.92.3 (2405546, 2018-03-11)"><metadata
     id="metadata112"><rdf:RDF><cc:Work
         rdf:about=""><dc:format>image/svg+xml</dc:format><dc:type
           rdf:resource="http://purl.org/dc/dcmitype/StillImage" /></cc:Work></rdf:RDF></metadata><defs
     id="defs110" /><sodipodi:namedview
     pagecolor="#ffffff"
     bordercolor="#666666"
     borderopacity="1"
     objecttolerance="10"
     gridtolerance="10"
     guidetolerance="10"
     inkscape:pageopacity="0"
     inkscape:pageshadow="2"
     inkscape:window-width="1623"
     inkscape:window-height="802"
     id="namedview108"
     showgrid="false"
     inkscape:zoom="5.9"
     inkscape:cx="16"
     inkscape:cy="20"
     inkscape:window-x="0"
     inkscape:window-y="0"
     inkscape:window-maximized="0"
     inkscape:current-layer="svg106" /><g
     display="none"
     id="g4"><rect
       x="-361.167"
       y="-43.516"
       display="inline"
       fill="#000000"
       width="400.796"
       height="199.346"
       id="rect2" /></g><g
     display="none"
     id="g38"><g
       display="inline"
       id="g12"><path
         d="M9.523,24.835v-4.922h2.427c0.604,0,1.02,0.104,1.248,0.313s0.342,0.588,0.342,1.136c0,0.498-0.057,0.838-0.171,1.021    s-0.348,0.309-0.701,0.379v0.032c0.546,0.033,0.818,0.353,0.818,0.956v1.085h-0.934v-0.897c0-0.508-0.25-0.762-0.75-0.762h-1.346    v1.659H9.523z M10.457,22.39h1.342c0.319,0,0.532-0.057,0.637-0.171s0.156-0.343,0.156-0.687c0-0.352-0.045-0.578-0.135-0.681    c-0.09-0.102-0.288-0.152-0.594-0.152h-1.406V22.39z"
         id="path6" /><path
         d="M17.936,21.348h-0.912c-0.005-0.046-0.008-0.079-0.008-0.101c-0.021-0.276-0.083-0.45-0.184-0.521    c-0.101-0.07-0.339-0.106-0.714-0.106c-0.442,0-0.731,0.041-0.867,0.123s-0.204,0.254-0.204,0.516c0,0.31,0.056,0.496,0.166,0.559    s0.477,0.111,1.097,0.145c0.732,0.041,1.207,0.146,1.422,0.313c0.216,0.169,0.323,0.519,0.323,1.05    c0,0.653-0.126,1.076-0.379,1.268c-0.252,0.19-0.809,0.286-1.67,0.286c-0.773,0-1.287-0.094-1.541-0.281s-0.381-0.567-0.381-1.14    l-0.003-0.18h0.908l0.004,0.104c0,0.344,0.06,0.554,0.18,0.631c0.121,0.077,0.449,0.115,0.985,0.115    c0.418,0,0.685-0.044,0.8-0.133s0.174-0.295,0.174-0.617c0-0.238-0.044-0.396-0.132-0.474s-0.277-0.126-0.568-0.143l-0.516-0.033    c-0.778-0.045-1.276-0.153-1.493-0.324c-0.216-0.171-0.324-0.537-0.324-1.1c0-0.574,0.131-0.958,0.392-1.148    c0.261-0.191,0.781-0.287,1.562-0.287c0.741,0,1.239,0.088,1.497,0.264c0.257,0.176,0.386,0.518,0.386,1.027V21.348z"
         id="path8" /><path
         d="M22.358,21.348h-0.912c-0.006-0.046-0.008-0.079-0.008-0.101c-0.021-0.276-0.084-0.45-0.184-0.521    c-0.102-0.07-0.34-0.106-0.715-0.106c-0.442,0-0.731,0.041-0.867,0.123s-0.204,0.254-0.204,0.516c0,0.31,0.056,0.496,0.166,0.559    s0.477,0.111,1.097,0.145c0.732,0.041,1.207,0.146,1.422,0.313c0.215,0.169,0.324,0.519,0.324,1.05    c0,0.653-0.127,1.076-0.379,1.268c-0.254,0.19-0.811,0.286-1.67,0.286c-0.774,0-1.288-0.094-1.542-0.281s-0.381-0.567-0.381-1.14    l-0.003-0.18h0.908l0.004,0.104c0,0.344,0.06,0.554,0.18,0.631c0.121,0.077,0.449,0.115,0.984,0.115    c0.42,0,0.686-0.044,0.801-0.133s0.174-0.295,0.174-0.617c0-0.238-0.045-0.396-0.131-0.474c-0.088-0.078-0.277-0.126-0.568-0.143    l-0.516-0.033c-0.779-0.045-1.277-0.153-1.494-0.324c-0.216-0.171-0.324-0.537-0.324-1.1c0-0.574,0.131-0.958,0.392-1.148    c0.261-0.191,0.781-0.287,1.563-0.287c0.74,0,1.238,0.088,1.496,0.264s0.387,0.518,0.387,1.027V21.348z"
         id="path10" /></g><g
       display="inline"
       id="g36"><g
         id="g22"><g
           id="g20"><line
             stroke="#000000"
             stroke-miterlimit="10"
             x1="3.814"
             y1="16.932"
             x2="28.186"
             y2="16.932"
             id="line14" /><g
             id="g18"><line
               stroke="#000000"
               stroke-miterlimit="10"
               x1="28.186"
               y1="27.833"
               x2="3.814"
               y2="27.833"
               id="line16" /></g></g></g><g
         id="g34"><path
           fill="none"
           stroke="#000000"
           stroke-miterlimit="10"
           d="M23.341,31.5H8.659c-2.711,0-4.909-2.198-4.909-4.909V5.409     C3.75,2.698,5.948,0.5,8.659,0.5h14.682c2.711,0,4.909,2.198,4.909,4.909v21.182C28.25,29.302,26.052,31.5,23.341,31.5z"
           id="path24" /><g
           id="g28"><line
             fill="none"
             stroke="#000000"
             stroke-miterlimit="10"
             x1="5.667"
             y1="16.932"
             x2="28.25"
             y2="4.448"
             id="line26" /></g><g
           id="g32"><line
             fill="none"
             stroke="#000000"
             stroke-miterlimit="10"
             x1="3.75"
             y1="12.412"
             x2="24.862"
             y2="0.741"
             id="line30" /></g></g></g></g><g
     display="none"
     id="g54"><g
       display="inline"
       id="g52"><path
         d="M7.605,16.432H28.75V5.409c0-0.218-0.017-0.432-0.042-0.643L7.605,16.432z"
         id="path40" /><path
         d="M28.486,3.747c-0.423-1.304-1.327-2.392-2.504-3.053L3.25,13.259v3.173h2.288L28.486,3.747z"
         id="path42" /><path
         d="M8.659,32h14.682c2.372,0,4.388-1.538,5.116-3.667H3.543C4.271,30.462,6.287,32,8.659,32z"
         id="path44" /><path
         d="M23.341,0H8.659C5.677,0,3.25,2.427,3.25,5.409v6.708L24.798,0.205C24.334,0.075,23.846,0,23.341,0z"
         id="path46" /><path
         d="M12.435,22.219c0.104-0.114,0.156-0.343,0.156-0.687c0-0.352-0.045-0.578-0.135-0.681    c-0.09-0.102-0.288-0.152-0.594-0.152h-1.406v1.69h1.342C12.118,22.39,12.331,22.333,12.435,22.219z"
         id="path48" /><path
         d="M3.25,26.591c0,0.252,0.023,0.499,0.057,0.742h25.386c0.034-0.243,0.057-0.49,0.057-0.742v-9.159H3.25V26.591z     M21.422,22.904c-0.088-0.078-0.277-0.126-0.568-0.143l-0.516-0.033c-0.779-0.045-1.277-0.153-1.494-0.324    c-0.216-0.171-0.324-0.537-0.324-1.1c0-0.574,0.131-0.958,0.392-1.148c0.261-0.191,0.781-0.287,1.563-0.287    c0.74,0,1.238,0.088,1.496,0.264s0.387,0.518,0.387,1.027v0.188h-0.912c-0.006-0.046-0.008-0.079-0.008-0.101    c-0.021-0.276-0.084-0.45-0.184-0.521c-0.102-0.07-0.34-0.106-0.715-0.106c-0.442,0-0.731,0.041-0.867,0.123    s-0.204,0.254-0.204,0.516c0,0.31,0.056,0.496,0.166,0.559s0.477,0.111,1.097,0.145c0.732,0.041,1.207,0.146,1.422,0.313    c0.215,0.169,0.324,0.519,0.324,1.05c0,0.653-0.127,1.076-0.379,1.268c-0.254,0.19-0.811,0.286-1.67,0.286    c-0.774,0-1.288-0.094-1.542-0.281s-0.381-0.567-0.381-1.14l-0.003-0.18h0.908l0.004,0.104c0,0.344,0.06,0.554,0.18,0.631    c0.121,0.077,0.449,0.115,0.984,0.115c0.42,0,0.686-0.044,0.801-0.133s0.174-0.295,0.174-0.617    C21.553,23.14,21.508,22.982,21.422,22.904z M17,22.904c-0.088-0.078-0.277-0.126-0.568-0.143l-0.516-0.033    c-0.778-0.045-1.276-0.153-1.493-0.324c-0.216-0.171-0.324-0.537-0.324-1.1c0-0.574,0.131-0.958,0.392-1.148    c0.261-0.191,0.781-0.287,1.562-0.287c0.741,0,1.239,0.088,1.497,0.264c0.257,0.176,0.386,0.518,0.386,1.027v0.188h-0.912    c-0.005-0.046-0.008-0.079-0.008-0.101c-0.021-0.276-0.083-0.45-0.184-0.521c-0.101-0.07-0.339-0.106-0.714-0.106    c-0.442,0-0.731,0.041-0.867,0.123s-0.204,0.254-0.204,0.516c0,0.31,0.056,0.496,0.166,0.559s0.477,0.111,1.097,0.145    c0.732,0.041,1.207,0.146,1.422,0.313c0.216,0.169,0.323,0.519,0.323,1.05c0,0.653-0.126,1.076-0.379,1.268    c-0.252,0.19-0.809,0.286-1.67,0.286c-0.773,0-1.287-0.094-1.541-0.281s-0.381-0.567-0.381-1.14l-0.003-0.18h0.908l0.004,0.104    c0,0.344,0.06,0.554,0.18,0.631c0.121,0.077,0.449,0.115,0.985,0.115c0.418,0,0.685-0.044,0.8-0.133s0.174-0.295,0.174-0.617    C17.132,23.14,17.088,22.982,17,22.904z M9.523,19.913h2.427c0.604,0,1.02,0.104,1.248,0.313s0.342,0.588,0.342,1.136    c0,0.498-0.057,0.838-0.171,1.021s-0.348,0.309-0.701,0.379v0.032c0.546,0.033,0.818,0.353,0.818,0.956v1.085h-0.934v-0.897    c0-0.508-0.25-0.762-0.75-0.762h-1.346v1.659H9.523V19.913z"
         id="path50" /></g></g><g
     id="g66"><g
       id="g64"><path
         d="M10.457,23.176h1.346c0.5,0,0.75,0.254,0.75,0.762v0.897h0.934V23.75c0-0.604-0.272-0.923-0.818-0.956v-0.032    c0.354-0.07,0.587-0.196,0.701-0.379s0.171-0.522,0.171-1.021c0-0.548-0.113-0.927-0.342-1.136s-0.645-0.313-1.248-0.313H9.523    v4.922h0.934V23.176z M10.457,20.699h1.406c0.306,0,0.504,0.051,0.594,0.152c0.09,0.103,0.135,0.329,0.135,0.681    c0,0.344-0.052,0.572-0.156,0.687s-0.317,0.171-0.637,0.171h-1.342V20.699z"
         id="path56" /><path
         d="M16.159,24.128c-0.536,0-0.864-0.038-0.985-0.115c-0.12-0.077-0.18-0.287-0.18-0.631l-0.004-0.104h-0.908l0.003,0.18    c0,0.572,0.127,0.952,0.381,1.14s0.768,0.281,1.541,0.281c0.861,0,1.418-0.096,1.67-0.286c0.253-0.191,0.379-0.614,0.379-1.268    c0-0.531-0.107-0.881-0.323-1.05c-0.215-0.168-0.689-0.272-1.422-0.313c-0.62-0.033-0.986-0.082-1.097-0.145    s-0.166-0.249-0.166-0.559c0-0.262,0.068-0.434,0.204-0.516s0.425-0.123,0.867-0.123c0.375,0,0.613,0.036,0.714,0.106    c0.101,0.071,0.162,0.245,0.184,0.521c0,0.021,0.003,0.055,0.008,0.101h0.912V21.16c0-0.51-0.129-0.852-0.386-1.027    c-0.258-0.176-0.756-0.264-1.497-0.264c-0.781,0-1.302,0.096-1.562,0.287c-0.261,0.19-0.392,0.574-0.392,1.148    c0,0.562,0.108,0.929,0.324,1.1c0.217,0.171,0.715,0.279,1.493,0.324l0.516,0.033c0.291,0.017,0.48,0.064,0.568,0.143    s0.132,0.235,0.132,0.474c0,0.322-0.059,0.528-0.174,0.617S16.577,24.128,16.159,24.128z"
         id="path58" /><path
         d="M20.579,24.128c-0.535,0-0.863-0.038-0.984-0.115c-0.12-0.077-0.18-0.287-0.18-0.631l-0.004-0.104h-0.908l0.003,0.18    c0,0.572,0.127,0.952,0.381,1.14s0.768,0.281,1.542,0.281c0.859,0,1.416-0.096,1.67-0.286c0.252-0.191,0.379-0.614,0.379-1.268    c0-0.531-0.109-0.881-0.324-1.05c-0.215-0.168-0.689-0.272-1.422-0.313c-0.62-0.033-0.986-0.082-1.097-0.145    s-0.166-0.249-0.166-0.559c0-0.262,0.068-0.434,0.204-0.516s0.425-0.123,0.867-0.123c0.375,0,0.613,0.036,0.715,0.106    c0.1,0.071,0.162,0.245,0.184,0.521c0,0.021,0.002,0.055,0.008,0.101h0.912V21.16c0-0.51-0.129-0.852-0.387-1.027    s-0.756-0.264-1.496-0.264c-0.782,0-1.303,0.096-1.563,0.287c-0.261,0.19-0.392,0.574-0.392,1.148c0,0.562,0.108,0.929,0.324,1.1    c0.217,0.171,0.715,0.279,1.494,0.324l0.516,0.033c0.291,0.017,0.48,0.064,0.568,0.143c0.086,0.078,0.131,0.235,0.131,0.474    c0,0.322-0.059,0.528-0.174,0.617S20.999,24.128,20.579,24.128z"
         id="path60" /><path
         d="M24.25,0H7.75c-2.75,0-5,2.25-5,5v22c0,2.75,2.25,5,5,5h16.5c2.75,0,5-2.25,5-5V5C29.25,2.25,27,0,24.25,0z M27.055,3.966    L5.41,15.932H4.75v-2.93L24.602,2.028C25.735,2.162,26.671,2.928,27.055,3.966z M7.75,2h12.769L4.75,10.717V5    C4.75,3.346,6.096,2,7.75,2z M24.25,30H7.75c-0.961,0-1.808-0.462-2.357-1.167h21.215C26.058,29.538,25.211,30,24.25,30z     M27.25,26.833H4.75v-8.901h22.5V26.833z M27.25,15.932H9.542L27.25,6.143V15.932z"
         id="path62" /></g></g><g
     display="none"
     id="g100"><g
       display="inline"
       id="g74"><path
         d="M9.523,24.835v-4.922h2.427c0.604,0,1.02,0.104,1.248,0.313s0.342,0.588,0.342,1.136c0,0.498-0.057,0.838-0.171,1.021    s-0.348,0.309-0.701,0.379v0.032c0.546,0.033,0.818,0.353,0.818,0.956v1.085h-0.934v-0.897c0-0.508-0.25-0.762-0.75-0.762h-1.346    v1.659H9.523z M10.457,22.39h1.342c0.319,0,0.532-0.057,0.637-0.171s0.156-0.343,0.156-0.687c0-0.352-0.045-0.578-0.135-0.681    c-0.09-0.102-0.288-0.152-0.594-0.152h-1.406V22.39z"
         id="path68" /><path
         d="M17.936,21.348h-0.912c-0.005-0.046-0.008-0.079-0.008-0.101c-0.021-0.276-0.083-0.45-0.184-0.521    c-0.101-0.07-0.339-0.106-0.714-0.106c-0.442,0-0.731,0.041-0.867,0.123s-0.204,0.254-0.204,0.516c0,0.31,0.056,0.496,0.166,0.559    s0.477,0.111,1.097,0.145c0.732,0.041,1.207,0.146,1.422,0.313c0.216,0.169,0.323,0.519,0.323,1.05    c0,0.653-0.126,1.076-0.379,1.268c-0.252,0.19-0.809,0.286-1.67,0.286c-0.773,0-1.287-0.094-1.541-0.281s-0.381-0.567-0.381-1.14    l-0.003-0.18h0.908l0.004,0.104c0,0.344,0.06,0.554,0.18,0.631c0.121,0.077,0.449,0.115,0.985,0.115    c0.418,0,0.685-0.044,0.8-0.133s0.174-0.295,0.174-0.617c0-0.238-0.044-0.396-0.132-0.474s-0.277-0.126-0.568-0.143l-0.516-0.033    c-0.778-0.045-1.276-0.153-1.493-0.324c-0.216-0.171-0.324-0.537-0.324-1.1c0-0.574,0.131-0.958,0.392-1.148    c0.261-0.191,0.781-0.287,1.562-0.287c0.741,0,1.239,0.088,1.497,0.264c0.257,0.176,0.386,0.518,0.386,1.027V21.348z"
         id="path70" /><path
         d="M22.358,21.348h-0.912c-0.006-0.046-0.008-0.079-0.008-0.101c-0.021-0.276-0.084-0.45-0.184-0.521    c-0.102-0.07-0.34-0.106-0.715-0.106c-0.442,0-0.731,0.041-0.867,0.123s-0.204,0.254-0.204,0.516c0,0.31,0.056,0.496,0.166,0.559    s0.477,0.111,1.097,0.145c0.732,0.041,1.207,0.146,1.422,0.313c0.215,0.169,0.324,0.519,0.324,1.05    c0,0.653-0.127,1.076-0.379,1.268c-0.254,0.19-0.811,0.286-1.67,0.286c-0.774,0-1.288-0.094-1.542-0.281s-0.381-0.567-0.381-1.14    l-0.003-0.18h0.908l0.004,0.104c0,0.344,0.06,0.554,0.18,0.631c0.121,0.077,0.449,0.115,0.984,0.115    c0.42,0,0.686-0.044,0.801-0.133s0.174-0.295,0.174-0.617c0-0.238-0.045-0.396-0.131-0.474c-0.088-0.078-0.277-0.126-0.568-0.143    l-0.516-0.033c-0.779-0.045-1.277-0.153-1.494-0.324c-0.216-0.171-0.324-0.537-0.324-1.1c0-0.574,0.131-0.958,0.392-1.148    c0.261-0.191,0.781-0.287,1.563-0.287c0.74,0,1.238,0.088,1.496,0.264s0.387,0.518,0.387,1.027V21.348z"
         id="path72" /></g><g
       display="inline"
       id="g98"><g
         id="g84"><g
           id="g82"><line
             fill="none"
             stroke="#000000"
             stroke-width="0.5"
             stroke-miterlimit="10"
             x1="3.814"
             y1="16.932"
             x2="28.186"
             y2="16.932"
             id="line76" /><g
             id="g80"><line
               fill="none"
               stroke="#000000"
               stroke-width="0.5"
               stroke-miterlimit="10"
               x1="28.186"
               y1="27.833"
               x2="3.814"
               y2="27.833"
               id="line78" /></g></g></g><g
         id="g96"><path
           fill="none"
           stroke="#000000"
           stroke-width="0.5"
           stroke-miterlimit="10"
           d="M23.341,31.5H8.659     c-2.711,0-4.909-2.198-4.909-4.909V5.409C3.75,2.698,5.948,0.5,8.659,0.5h14.682c2.711,0,4.909,2.198,4.909,4.909v21.182     C28.25,29.302,26.052,31.5,23.341,31.5z"
           id="path86" /><g
           id="g90"><line
             fill="none"
             stroke="#000000"
             stroke-width="0.5"
             stroke-miterlimit="10"
             x1="5.667"
             y1="16.932"
             x2="28.25"
             y2="4.448"
             id="line88" /></g><g
           id="g94"><line
             fill="none"
             stroke="#000000"
             stroke-width="0.5"
             stroke-miterlimit="10"
             x1="3.75"
             y1="12.412"
             x2="24.862"
             y2="0.741"
             id="line92" /></g></g></g></g></svg>